{
  "IcoMoonType": "selection",
  "icons": [
    {
      "icon": {
        "paths": [
          "M481.996 30.722c-96.87 7.168-191.693 44.646-267.264 105.677-23.552 19.046-63.283 60.416-81.306 84.582-43.827 59.187-72.704 123.904-86.63 195.174-26.010 133.734 5.12 270.131 86.63 379.904 18.022 24.166 57.754 65.536 81.306 84.582 94.003 76.186 215.654 114.278 335.258 105.472 68.608-5.12 125.952-21.094 185.754-51.61 47.309-24.166 84.582-51.814 124.314-92.365 80.282-82.125 125.542-183.706 134.349-300.442 8.806-119.603-29.286-241.254-105.472-335.258-19.046-23.552-60.416-63.283-84.582-81.306-72.704-53.862-156.467-85.811-245.555-93.594-22.938-2.048-55.706-2.458-76.8-0.819zM563.506 68.405c100.966 11.059 193.536 55.501 265.626 127.795 119.603 119.398 160.358 292.25 107.11 452.608-21.299 64.512-57.549 122.47-107.11 172.032-119.398 119.603-292.25 160.358-452.608 107.11-64.512-21.299-122.47-57.549-172.032-107.11-83.968-83.968-130.048-194.56-130.048-312.32 0-153.19 79.667-295.322 211.149-377.037 51.2-31.949 121.242-56.115 182.067-63.078 22.528-2.458 72.909-2.662 95.846 0z",
          "M501.042 287.336c-15.974 3.686-31.334 17.613-37.274 33.382-3.277 8.397-2.662 31.13 0.614 39.322 4.915 11.674 12.902 20.48 23.142 26.010 13.107 6.963 23.142 8.602 36.659 5.734 14.541-3.072 26.829-12.493 34.611-26.624 7.987-14.95 8.397-34.816 1.229-49.562-10.445-21.914-35.635-33.997-58.982-28.262z",
          "M496.332 445.237c-30.925 1.843-58.368 3.686-60.826 3.686-4.301 0.205-4.71 1.229-4.71 11.469 0 10.445 0.41 11.264 5.734 12.493 19.661 4.301 29.491 10.24 35.226 21.094 3.891 7.987 4.096 11.674 4.096 99.533 0 72.909-0.614 92.57-2.867 98.099-3.277 7.578-11.878 12.493-26.214 14.541l-9.83 1.434v24.166h165.888v-23.552l-10.65-2.662c-12.902-3.072-19.046-6.963-24.166-15.36-3.891-6.349-4.096-11.264-4.096-125.542 0-122.675 0-124.109-7.987-123.494-1.843 0.205-28.672 2.048-59.597 4.096z"
        ],
        "attrs": [
          {},
          {},
          {}
        ],
        "isMulticolor": false,
        "isMulticolor2": false,
        "grid": 0,
        "tags": [
          "info"
        ]
      },
      "attrs": [
        {},
        {},
        {}
      ],
      "properties": {
        "order": 4650,
        "id": 9,
        "name": "info",
        "prevSize": 32,
        "code": 59648
      },
      "setIdx": 0,
      "setId": 2,
      "iconIdx": 0
    },
    {
      "icon": {
        "paths": [
          "M147.219 92.456c-25.377 4.897-50.013 30.275-54.91 56.097-0.89 4.897-1.484 54.762-1.484 130.746 0 135.94 0 135.346 9.646 164.137 6.678 20.183 17.957 42.147 28.791 56.394 5.343 7.123 90.379 93.050 213.408 215.93 195.154 194.857 204.948 204.355 214.15 208.362 20.777 9.053 43.038 8.459 63.666-1.484 10.982-5.343 14.989-9.201 154.045-148.999 133.268-133.714 143.212-144.102 148.257-154.045 10.388-20.48 10.388-44.077 0-64.853-4.897-9.943-16.621-21.964-211.923-216.969-132.972-132.823-209.846-208.659-215.634-212.369-13.505-9.053-34.875-19.293-51.794-24.932-28.939-9.646-28.049-9.646-165.472-9.498-68.267 0.148-127.035 0.742-130.746 1.484zM285.088 200.792c23.597 5.343 44.967 26.565 51.497 51.052 6.975 25.674-3.71 55.504-25.674 72.274-38.586 29.236-93.050 12.021-108.633-34.133-3.859-11.13-4.155-28.939-0.742-40.515 6.381-21.667 24.784-40.515 46.303-47.49 9.498-2.968 27.010-3.562 37.25-1.187z"
        ],
        "attrs": [
          {}
        ],
        "isMulticolor": false,
        "isMulticolor2": false,
        "grid": 0,
        "tags": [
          "mark"
        ]
      },
      "attrs": [
        {}
      ],
      "properties": {
        "order": 4651,
        "id": 8,
        "name": "mark",
        "prevSize": 32,
        "code": 59649
      },
      "setIdx": 0,
      "setId": 2,
      "iconIdx": 1
    },
    {
      "icon": {
        "paths": [
          "M490.487 33.846c-17.497 1.291-41.448 5.306-59.375 9.752-114.447 28.97-205.087 119.61-234.057 234.057-7.314 29.401-9.609 48.762-9.609 81.604 0 31.695 2.295 52.921 9.179 86.624 24.668 119.323 100.536 266.9 218.998 426.093 33.703 45.176 93.221 118.319 96.376 118.319s62.673-73.143 96.376-118.319c118.606-159.48 194.331-306.77 218.998-426.667 6.884-33.129 9.179-54.355 9.179-86.050 0.143-54.785-10.326-99.388-34.133-147.003-47.471-94.655-139.832-161.058-244.24-175.543-16.35-2.295-53.782-3.872-67.693-2.868zM555.742 72.426c52.491 8.031 102.113 30.978 144.278 66.402 52.491 44.173 89.206 111.148 98.958 180.993 3.012 21.369 2.295 63.964-1.434 88.632-18.644 122.765-99.818 283.68-231.762 459.939-27.966 37.432-51.917 67.406-53.782 67.406s-25.815-29.974-53.782-67.406c-131.944-176.26-213.118-337.174-231.762-459.939-3.729-24.668-4.446-67.263-1.434-88.632 9.752-69.844 46.467-136.82 98.958-180.993 43.455-36.428 98.384-61.096 149.297-66.976 7.458-0.861 15.632-1.864 17.927-2.151 8.605-1.291 50.483 0.574 64.538 2.725z",
          "M493.069 205.087c-51.057 6.024-97.38 39.010-119.61 85.333-43.742 91.070 8.462 198.346 106.272 218.855 17.64 3.729 46.897 3.729 64.538 0 45.463-9.466 85.046-40.013 105.412-81.174 21.799-44.316 22.23-93.365 0.861-137.681-28.253-58.658-91.5-92.934-157.472-85.333zM543.982 244.527c20.652 6.024 33.703 13.625 49.622 28.54 16.206 15.489 26.245 31.839 32.412 53.064 15.776 54.642-10.039 112.583-61.669 138.398-39.727 19.792-88.919 15.202-123.626-11.617-51.343-39.583-62.387-110.575-25.528-162.492 6.884-9.752 21.226-23.807 30.835-30.404 13.338-9.035 30.691-15.919 48.332-19.075 12.19-2.295 35.711-0.574 49.622 3.585z"
        ],
        "attrs": [
          {},
          {}
        ],
        "isMulticolor": false,
        "isMulticolor2": false,
        "grid": 0,
        "tags": [
          "marker"
        ]
      },
      "attrs": [
        {},
        {}
      ],
      "properties": {
        "order": 4655,
        "id": 7,
        "name": "marker",
        "prevSize": 32,
        "code": 59650
      },
      "setIdx": 0,
      "setId": 2,
      "iconIdx": 2
    },
    {
      "icon": {
        "paths": [
          "M460.8 86.221c-101.99 8.397-201.933 44.646-278.733 101.376-26.829 19.866-70.451 63.488-88.269 88.883-26.624 37.478-48.333 88.474-56.32 131.686-4.71 26.010-4.71 79.667 0.205 105.677 18.022 97.28 82.534 184.525 181.453 244.941 10.65 6.349 19.661 11.878 19.661 12.083 1.229 0.819-8.397 33.178-14.131 46.899-13.722 33.997-35.021 64.922-69.632 100.966l-20.89 21.914 18.432-1.434c104.243-8.192 194.56-43.008 248.832-96.051l13.517-13.312 21.299 2.867c73.523 9.626 161.792 3.482 233.677-16.384 169.574-46.694 291.021-163.021 316.621-302.899 4.71-25.6 4.71-79.667 0-105.267-36.864-201.318-267.878-342.835-525.722-321.946zM595.149 126.566c208.691 32.154 359.219 172.237 359.219 334.234 0 164.045-152.166 303.514-365.568 335.258-37.683 5.53-118.989 4.915-158.515-1.024l-29.286-4.71-20.070 21.094c-11.059 11.674-28.262 27.034-38.093 34.202-29.696 21.094-76.595 41.984-112.64 50.176l-12.493 2.662 14.746-22.118c15.974-23.552 24.576-41.984 32.358-69.632 5.53-18.432 10.65-53.453 8.806-58.163-0.614-1.638-7.373-6.144-14.95-10.035-32.154-16.179-73.114-46.694-100.557-74.752-157.696-161.382-98.099-390.554 128.614-495.206 44.646-20.685 106.701-38.093 155.648-43.418 10.65-1.229 22.323-2.662 25.6-3.072 17.203-2.458 101.581 0.614 127.181 4.506z"
        ],
        "attrs": [
          {}
        ],
        "isMulticolor": false,
        "isMulticolor2": false,
        "grid": 0,
        "tags": [
          "message"
        ]
      },
      "attrs": [
        {}
      ],
      "properties": {
        "order": 4653,
        "id": 6,
        "name": "message",
        "prevSize": 32,
        "code": 59651
      },
      "setIdx": 0,
      "setId": 2,
      "iconIdx": 3
    },
    {
      "icon": {
        "paths": [
          "M248.804 120.804c-13.561 4.843-24.216 15.498-29.89 29.613-2.214 5.397-2.352 17.989-2.768 150.832l-0.415 145.021h-23.248c-38.608 0-54.659 5.95-77.63 29.059-15.083 14.945-21.864 26.292-26.292 43.728-2.629 10.24-2.768 15.775-2.768 128v117.206l3.598 4.29c1.937 2.352 5.812 4.843 8.579 5.674 3.044 0.83 27.261 1.384 61.578 1.384h56.32v41.375c0 22.694 0.692 44.558 1.384 48.709 2.906 15.498 12.177 27.952 26.569 35.425l7.334 3.875h521.686l7.472-3.875c8.856-4.705 18.266-14.115 22.141-22.279 4.705-9.686 5.674-19.788 5.674-62.824v-40.406h56.458c34.179 0 58.396-0.554 61.44-1.384 2.768-0.83 6.642-3.321 8.579-5.674l3.598-4.29v-116.376c0-130.629 0.138-126.893-9.963-147.511-4.843-9.825-8.164-14.253-18.958-25.046-23.109-23.109-39.161-29.059-77.769-29.059h-23.248l-0.415-73.064c-0.692-80.951-0.554-80.121-10.794-104.199-9.548-22.694-13.146-26.984-59.364-73.617-42.897-43.312-52.722-52.169-65.176-59.364-10.24-5.812-26.292-12.177-38.054-15.083-10.655-2.491-18.128-2.629-195.114-2.629-170.067 0.138-184.597 0.277-190.547 2.491zM610.249 231.092c0 43.312 0.138 46.772 2.906 53.829 3.875 10.655 13.284 20.48 24.493 26.015l9.271 4.566 93.405 0.83v194.975h-456.649v-326.573h326.573v46.357zM848.951 514.214c7.888 2.214 19.235 13.838 21.449 22.002 5.258 19.373-10.378 40.13-30.028 40.13-18.128 0-32.104-13.699-32.242-31.55 0-12.869 6.642-23.248 18.681-28.783 7.611-3.598 13.699-4.151 22.141-1.799zM740.324 774.227v65.038h-456.649v-130.076h456.649v65.038z"
        ],
        "attrs": [
          {}
        ],
        "isMulticolor": false,
        "isMulticolor2": false,
        "grid": 0,
        "tags": [
          "print"
        ]
      },
      "attrs": [
        {}
      ],
      "properties": {
        "order": 4654,
        "id": 5,
        "name": "print",
        "prevSize": 32,
        "code": 59652
      },
      "setIdx": 0,
      "setId": 2,
      "iconIdx": 4
    },
    {
      "icon": {
        "paths": [
          "M413.488 101.843c-118.932 9.253-222.442 78.095-276.11 183.58-17.519 34.545-28.376 70.076-33.928 111.283-2.467 18.629-2.838 60.083-0.617 78.959 12.954 110.049 75.998 204.677 172.229 258.221 32.941 18.383 74.641 32.447 114.12 38.493 20.357 3.208 64.524 3.825 86.361 1.357 67.979-7.896 129.542-34.298 180.495-77.479l10.117-8.389 116.588 116.465c103.017 103.017 117.081 116.588 121.153 117.328 10.117 1.851 19.493-7.526 17.642-17.642-0.74-4.071-14.311-18.136-117.328-121.153l-116.465-116.588 8.389-10.117c43.181-50.953 69.583-112.517 77.479-180.495 2.714-23.688 1.851-66.252-1.851-89.076-24.058-149.529-140.893-263.279-290.174-282.772-18.013-2.344-50.953-3.331-68.102-1.974zM483.564 137.004c54.654 8.636 105.238 30.843 146.938 64.524 61.933 49.843 101.783 121.276 112.27 201.346 2.838 21.837 1.851 66.005-1.974 87.472-17.272 97.342-77.849 179.015-165.567 222.936-96.601 48.486-212.819 41.824-302.635-17.272-37.506-24.675-70.693-58.602-93.764-95.738-9.253-15.052-22.577-42.687-28.253-58.973-33.804-96.478-17.396-203.073 43.674-284.623 50.83-67.855 128.802-112.27 212.819-121.4 15.792-1.727 61.563-0.74 76.492 1.727z"
        ],
        "attrs": [
          {}
        ],
        "isMulticolor": false,
        "isMulticolor2": false,
        "grid": 0,
        "tags": [
          "search"
        ]
      },
      "attrs": [
        {}
      ],
      "properties": {
        "order": 4656,
        "id": 4,
        "name": "search",
        "prevSize": 32,
        "code": 59653
      },
      "setIdx": 0,
      "setId": 2,
      "iconIdx": 5
    },
    {
      "icon": {
        "paths": [
          "M302.762 836.836c7.282 10.012 34.816 37.092 43.463 42.78 6.827 4.551 16.384 4.779 24.576 0.455 3.413-1.82 85.561-82.83 182.5-179.769l176.356-176.583v-22.756l-176.356-176.583c-96.939-96.939-179.086-177.948-182.5-179.769-9.33-5.006-18.432-3.868-28.217 3.413-10.012 7.282-37.092 34.816-42.78 43.463-4.551 6.827-4.779 16.384-0.228 24.804 1.82 3.641 68.949 71.68 149.504 151.324l146.091 144.725-146.091 144.725c-80.555 79.644-147.684 147.684-149.504 151.324-5.234 9.785-4.096 18.66 3.186 28.444z"
        ],
        "attrs": [
          {}
        ],
        "isMulticolor": false,
        "isMulticolor2": false,
        "grid": 0,
        "tags": [
          "arrow-right"
        ]
      },
      "attrs": [
        {}
      ],
      "properties": {
        "order": 4657,
        "id": 3,
        "name": "arrow-bottom",
        "prevSize": 32,
        "code": 59654
      },
      "setIdx": 0,
      "setId": 2,
      "iconIdx": 6
    },
    {
      "icon": {
        "paths": [
          "M187.164 302.762c-10.012 7.282-37.092 34.816-42.78 43.463-4.551 6.827-4.779 16.384-0.455 24.576 1.82 3.413 82.83 85.561 179.769 182.5l176.583 176.356h22.756l176.583-176.356c96.939-96.939 177.948-179.086 179.769-182.5 5.006-9.33 3.868-18.432-3.413-28.217-7.282-10.012-34.816-37.092-43.463-42.78-6.827-4.551-16.384-4.779-24.804-0.228-3.641 1.82-71.68 68.949-151.324 149.504l-144.725 146.091-144.725-146.091c-79.644-80.555-147.684-147.684-151.324-149.504-9.785-5.234-18.66-4.096-28.444 3.186z"
        ],
        "attrs": [
          {}
        ],
        "isMulticolor": false,
        "isMulticolor2": false,
        "grid": 0,
        "tags": [
          "arrow-bottom"
        ]
      },
      "attrs": [
        {}
      ],
      "properties": {
        "order": 4658,
        "id": 11,
        "prevSize": 32,
        "code": 59655,
        "name": "arrow-bottom2"
      },
      "setIdx": 0,
      "setId": 2,
      "iconIdx": 7
    },
    {
      "icon": {
        "paths": [
          "M721.238 187.164c-7.282-10.012-34.816-37.092-43.463-42.78-6.827-4.551-16.384-4.779-24.576-0.455-3.413 1.82-85.561 82.83-182.5 179.769l-176.356 176.583v22.756l176.356 176.583c96.939 96.939 179.086 177.948 182.5 179.769 9.33 5.006 18.432 3.868 28.217-3.413 10.012-7.282 37.092-34.816 42.78-43.463 4.551-6.827 4.779-16.384 0.228-24.804-1.82-3.641-68.949-71.68-149.504-151.324l-146.091-144.725 146.091-144.725c80.555-79.644 147.684-147.684 149.504-151.324 5.234-9.785 4.096-18.66-3.186-28.444z"
        ],
        "attrs": [
          {}
        ],
        "isMulticolor": false,
        "isMulticolor2": false,
        "grid": 0,
        "tags": [
          "arrow-left"
        ]
      },
      "attrs": [
        {}
      ],
      "properties": {
        "order": 4659,
        "id": 10,
        "prevSize": 32,
        "code": 59656,
        "name": "arrow-left"
      },
      "setIdx": 0,
      "setId": 2,
      "iconIdx": 8
    },
    {
      "icon": {
        "paths": [
          "M187.164 721.237c-10.012-7.282-37.092-34.816-42.78-43.463-4.551-6.827-4.779-16.384-0.455-24.576 1.82-3.413 82.83-85.561 179.769-182.5l176.583-176.356h22.756l176.583 176.356c96.939 96.939 177.948 179.086 179.769 182.5 5.006 9.33 3.868 18.432-3.413 28.217-7.282 10.012-34.816 37.092-43.463 42.78-6.827 4.551-16.384 4.779-24.804 0.228-3.641-1.82-71.68-68.949-151.324-149.504l-144.725-146.091-144.725 146.091c-79.644 80.555-147.684 147.684-151.324 149.504-9.785 5.234-18.66 4.096-28.444-3.186z"
        ],
        "attrs": [
          {}
        ],
        "isMulticolor": false,
        "isMulticolor2": false,
        "grid": 0,
        "tags": [
          "arrow-top"
        ]
      },
      "attrs": [
        {}
      ],
      "properties": {
        "order": 4660,
        "id": 12,
        "prevSize": 32,
        "code": 59657,
        "name": "arrow-top"
      },
      "setIdx": 0,
      "setId": 2,
      "iconIdx": 9
    },
    {
      "icon": {
        "paths": [
          "M192.123 39.219c-7.328 7.13-6.536 14.855 7.923 70.709 6.932 27.531 12.478 50.111 12.28 50.309-0.198 0-34.662 10.299-76.651 22.381-84.376 24.56-85.168 24.956-85.168 40.009 0 9.903 6.932 17.628 15.647 17.628 3.169 0 39.415-10.101 80.415-22.579 47.932-14.459 74.869-21.589 75.463-20.203 1.783 5.546 139.438 557.951 139.438 560.328 0 1.386-4.754 4.952-10.696 7.725-13.667 6.734-32.681 24.362-42.782 39.811-12.676 19.609-18.42 39.613-18.42 65.758 0 18.618 0.792 24.164 5.15 37.236 13.865 40.009 45.357 69.323 85.564 79.622 15.053 3.763 41.99 3.763 58.231 0 31.294-7.526 63.975-33.473 78.236-62.391 14.261-29.314 16.439-61.4 6.338-91.506-2.575-7.923-4.159-15.053-3.565-15.647 0.792-0.792 99.825-30.898 220.249-67.144s221.438-67.144 224.409-68.729c5.942-2.971 9.309-9.507 9.309-17.628 0-6.338-10.101-16.638-16.241-16.638-2.575 0-107.352 31.096-233.123 69.125l-228.568 69.125-11.092-9.111c-20.203-16.439-47.14-26.145-72.492-26.145h-13.865l-88.139-354.142c-72.096-289.572-88.932-354.736-92.497-358.499-6.14-6.338-18.816-6.14-25.352 0.594zM429.802 790.086c41.396 10.696 69.521 52.884 62.391 93.685-8.913 50.903-59.024 82.593-107.154 67.54-23.768-7.328-41.792-23.174-52.685-46.744-4.952-10.497-5.546-13.865-5.546-33.473 0-20.797 0.396-22.579 6.734-35.652 18.42-37.236 57.439-55.656 96.26-45.357z",
          "M601.129 230.352c-135.675 42.188-248.969 77.84-251.742 79.028-5.348 2.377-9.705 9.507-9.705 16.043 0 4.952 102.4 397.32 104.975 402.074s8.319 7.923 14.261 7.923c8.121 0 506.256-155.482 510.614-159.443 2.377-2.179 3.961-6.14 3.961-9.903 0-6.734-101.608-398.706-104.975-405.044-2.773-5.15-8.319-7.923-15.251-7.725-2.971 0.198-116.463 34.86-252.138 77.048zM885.947 372.96c25.352 97.25 45.555 177.467 44.565 178.259-1.981 1.783-456.344 143.202-457.136 142.211-0.396-0.396-21.391-80.613-46.942-178.457l-46.347-177.665 15.845-5.15c8.913-2.575 111.511-34.662 227.974-71.106 116.661-36.246 212.921-65.758 213.911-65.56 1.188 0.198 22.778 80.019 48.13 177.467z"
        ],
        "attrs": [
          {},
          {}
        ],
        "isMulticolor": false,
        "isMulticolor2": false,
        "grid": 0,
        "tags": [
          "delivery"
        ]
      },
      "attrs": [
        {},
        {}
      ],
      "properties": {
        "order": 4661,
        "id": 2,
        "name": "delivery",
        "prevSize": 32,
        "code": 59658
      },
      "setIdx": 0,
      "setId": 2,
      "iconIdx": 10
    },
    {
      "icon": {
        "paths": [
          "M175.117 153.322c-21.587 4.705-37.085 13.699-55.213 31.827-14.115 14.115-20.618 23.386-26.43 37.777-7.888 19.511-7.472 5.674-7.472 288.796s-0.415 269.284 7.472 288.796c5.812 14.391 12.316 23.663 26.43 37.777 14.253 14.253 23.386 20.618 38.054 26.569 19.096 7.611 0.138 7.334 353.695 7.334 229.985 0 329.064-0.415 334.876-1.522 20.065-3.736 39.991-14.253 56.32-30.166 17.574-16.882 27.537-34.041 32.796-56.182 2.768-11.347 2.768-15.914 2.491-211.304l-0.415-199.68-3.321-9.686c-13.008-38.746-43.036-67.667-81.228-78.461l-10.932-3.183-361.859-0.83v-10.932c0-30.72-7.888-54.106-25.877-76.523-13.976-17.436-33.764-30.997-56.458-38.469l-9.686-3.321-102.4-0.277c-81.782-0.138-104.061 0.138-110.841 1.661zM385.037 222.234c8.856 4.29 18.819 14.115 23.524 23.248 2.906 5.535 3.321 8.579 4.151 35.148 0.692 25.046 1.245 30.166 3.875 36.809 3.598 9.41 11.901 19.373 20.48 24.355 12.869 7.472 7.057 7.334 208.951 7.334 185.289 0 187.226 0 194.698 2.906 10.655 3.875 20.48 13.284 26.015 24.493l4.566 9.271v383.308l-3.736 7.888c-4.705 10.102-14.253 19.65-24.355 24.355l-7.888 3.736h-646.227l-7.888-3.736c-10.102-4.705-19.65-14.253-24.355-24.355l-3.736-7.888v-514.768l3.044-6.642c6.365-13.699 16.19-22.694 29.89-27.537 6.642-2.214 13.423-2.491 99.217-2.076l92.022 0.277 7.749 3.875z"
        ],
        "attrs": [
          {}
        ],
        "isMulticolor": false,
        "isMulticolor2": false,
        "grid": 0,
        "tags": [
          "folder"
        ]
      },
      "attrs": [
        {}
      ],
      "properties": {
        "order": 4662,
        "id": 1,
        "name": "folder",
        "prevSize": 32,
        "code": 59659
      },
      "setIdx": 0,
      "setId": 2,
      "iconIdx": 11
    },
    {
      "icon": {
        "paths": [
          "M496.167 183.216c-2.836 0.788-8.192 2.678-11.815 4.254-7.089 3.308-382.503 315.234-385.182 320.276-2.521 4.726-2.048 13.076 0.945 17.487 5.356 7.877 33.713 40.802 37.022 43.323 4.411 2.993 11.658 2.993 17.172 0.158 2.363-1.103 83.338-68.214 179.909-148.874 96.729-80.66 176.601-146.668 177.546-146.668s80.502 65.851 176.916 146.196c96.414 80.345 176.916 147.298 179.121 148.874 4.884 3.308 13.863 3.466 18.59 0.315 3.308-2.521 31.665-35.446 37.022-43.323 3.938-5.671 3.466-14.651-1.103-20.007-2.048-2.363-28.672-25.049-59.077-50.097l-55.138-45.686-0.158-106.811c0-116.736 0.158-113.743-9.137-117.524-3.151-1.26-20.007-1.733-59.865-1.418-55.296 0.473-55.454 0.473-58.919 4.096-3.623 3.466-3.623 3.938-4.411 57.029l-0.788 53.406-63.015-52.775c-71.995-60.495-74.673-62.228-96.571-63.015-7.562-0.315-16.069 0.158-19.062 0.788z",
          "M363.677 436.065l-147.298 121.62-0.473 127.606c-0.315 88.379 0 129.339 1.26 133.435 2.206 7.719 10.24 16.699 18.117 20.165 5.829 2.678 13.076 2.993 109.174 2.993h102.715v-196.923h129.182v196.923h102.873c95.941 0 103.188-0.315 109.017-2.993 7.877-3.466 15.911-12.446 18.117-20.165 1.26-4.096 1.575-45.056 1.26-133.435l-0.473-127.606-147.298-121.62c-80.975-66.954-147.614-121.777-148.086-121.777s-67.111 54.823-148.086 121.777z"
        ],
        "attrs": [
          {},
          {}
        ],
        "isMulticolor": false,
        "isMulticolor2": false,
        "grid": 0,
        "tags": [
          "home"
        ]
      },
      "attrs": [
        {},
        {}
      ],
      "properties": {
        "order": 4663,
        "id": 0,
        "name": "home",
        "prevSize": 32,
        "code": 59660
      },
      "setIdx": 0,
      "setId": 2,
      "iconIdx": 12
    }
  ],
  "height": 1024,
  "metadata": {
    "name": "icomoon"
  },
  "preferences": {
    "showGlyphs": true,
    "showQuickUse": true,
    "showQuickUse2": true,
    "showSVGs": true,
    "fontPref": {
      "prefix": "icon-",
      "metadata": {
        "fontFamily": "icomoon"
      },
      "metrics": {
        "emSize": 1024,
        "baseline": 6.25,
        "whitespace": 50
      },
      "embed": false
    },
    "imagePref": {
      "prefix": "icon-",
      "png": true,
      "useClassSelector": true,
      "color": 0,
      "bgColor": 16777215,
      "classSelector": ".icon"
    },
    "historySize": 100,
    "showCodes": false,
    "gridSize": 16,
    "showLiga": false
  }
}